<?xml version="1.0" encoding="utf-8"  standalone="no"?>
<svg 
 width="600" height="500"
 viewBox="0 0 600 500"
 xmlns="http://www.w3.org/2000/svg"
 xmlns:xlink="http://www.w3.org/1999/xlink"
>

<title>Gnuplot</title>
<desc>Produced by GNUPLOT 5.2 patchlevel 8 </desc>

<g id="gnuplot_canvas">

<rect x="0" y="0" width="600" height="500" fill="none"/>
<defs>

	<circle id='gpDot' r='0.5' stroke-width='0.5' stroke='currentColor'/>
	<path id='gpPt0' stroke-width='0.190' stroke='currentColor' d='M-1,0 h2 M0,-1 v2'/>
	<path id='gpPt1' stroke-width='0.190' stroke='currentColor' d='M-1,-1 L1,1 M1,-1 L-1,1'/>
	<path id='gpPt2' stroke-width='0.190' stroke='currentColor' d='M-1,0 L1,0 M0,-1 L0,1 M-1,-1 L1,1 M-1,1 L1,-1'/>
	<rect id='gpPt3' stroke-width='0.190' stroke='currentColor' x='-1' y='-1' width='2' height='2'/>
	<rect id='gpPt4' stroke-width='0.190' stroke='currentColor' fill='currentColor' x='-1' y='-1' width='2' height='2'/>
	<circle id='gpPt5' stroke-width='0.190' stroke='currentColor' cx='0' cy='0' r='1'/>
	<use xlink:href='#gpPt5' id='gpPt6' fill='currentColor' stroke='none'/>
	<path id='gpPt7' stroke-width='0.190' stroke='currentColor' d='M0,-1.33 L-1.33,0.67 L1.33,0.67 z'/>
	<use xlink:href='#gpPt7' id='gpPt8' fill='currentColor' stroke='none'/>
	<use xlink:href='#gpPt7' id='gpPt9' stroke='currentColor' transform='rotate(180)'/>
	<use xlink:href='#gpPt9' id='gpPt10' fill='currentColor' stroke='none'/>
	<use xlink:href='#gpPt3' id='gpPt11' stroke='currentColor' transform='rotate(45)'/>
	<use xlink:href='#gpPt11' id='gpPt12' fill='currentColor' stroke='none'/>
	<path id='gpPt13' stroke-width='0.190' stroke='currentColor' d='M0,1.330 L1.265,0.411 L0.782,-1.067 L-0.782,-1.076 L-1.265,0.411 z'/>
	<use xlink:href='#gpPt13' id='gpPt14' fill='currentColor' stroke='none'/>
	<filter id='textbox' filterUnits='objectBoundingBox' x='0' y='0' height='1' width='1'>
	  <feFlood flood-color='white' flood-opacity='1' result='bgnd'/>
	  <feComposite in='SourceGraphic' in2='bgnd' operator='atop'/>
	</filter>
	<filter id='greybox' filterUnits='objectBoundingBox' x='0' y='0' height='1' width='1'>
	  <feFlood flood-color='lightgrey' flood-opacity='1' result='grey'/>
	  <feComposite in='SourceGraphic' in2='grey' operator='atop'/>
	</filter>
</defs>
<g fill="none" color="white" stroke="currentColor" stroke-width="1.00" stroke-linecap="butt" stroke-linejoin="miter">
</g>
<g fill="none" color="black" stroke="currentColor" stroke-width="1.00" stroke-linecap="butt" stroke-linejoin="miter">
	<path stroke='black'  d='M84.0,432.8 M570.8,432.8  '/>	<g transform="translate(74.3,437.4)" stroke="none" fill="black" font-family="Helvetica" font-size="14.00"  text-anchor="end">
		<text><tspan font-family="Helvetica" > 0</tspan></text>
	</g>
</g>
<g fill="none" color="black" stroke="currentColor" stroke-width="1.00" stroke-linecap="butt" stroke-linejoin="miter">
	<path stroke='black'  d='M84.0,365.6 M570.8,365.6  '/>	<g transform="translate(74.3,370.2)" stroke="none" fill="black" font-family="Helvetica" font-size="14.00"  text-anchor="end">
		<text><tspan font-family="Helvetica" > 20</tspan></text>
	</g>
</g>
<g fill="none" color="black" stroke="currentColor" stroke-width="1.00" stroke-linecap="butt" stroke-linejoin="miter">
	<path stroke='black'  d='M84.0,298.4 M570.8,298.4  '/>	<g transform="translate(74.3,303.0)" stroke="none" fill="black" font-family="Helvetica" font-size="14.00"  text-anchor="end">
		<text><tspan font-family="Helvetica" > 40</tspan></text>
	</g>
</g>
<g fill="none" color="black" stroke="currentColor" stroke-width="1.00" stroke-linecap="butt" stroke-linejoin="miter">
	<path stroke='black'  d='M84.0,231.1 M570.8,231.1  '/>	<g transform="translate(74.3,235.7)" stroke="none" fill="black" font-family="Helvetica" font-size="14.00"  text-anchor="end">
		<text><tspan font-family="Helvetica" > 60</tspan></text>
	</g>
</g>
<g fill="none" color="black" stroke="currentColor" stroke-width="1.00" stroke-linecap="butt" stroke-linejoin="miter">
	<path stroke='black'  d='M84.0,163.9 M570.8,163.9  '/>	<g transform="translate(74.3,168.5)" stroke="none" fill="black" font-family="Helvetica" font-size="14.00"  text-anchor="end">
		<text><tspan font-family="Helvetica" > 80</tspan></text>
	</g>
</g>
<g fill="none" color="black" stroke="currentColor" stroke-width="1.00" stroke-linecap="butt" stroke-linejoin="miter">
	<path stroke='black'  d='M84.0,96.7 M570.8,96.7  '/>	<g transform="translate(74.3,101.3)" stroke="none" fill="black" font-family="Helvetica" font-size="14.00"  text-anchor="end">
		<text><tspan font-family="Helvetica" > 100</tspan></text>
	</g>
</g>
<g fill="none" color="black" stroke="currentColor" stroke-width="1.00" stroke-linecap="butt" stroke-linejoin="miter">
	<path stroke='black'  d='M84.0,432.8 M84.0,63.1  '/>	<g transform="translate(84.0,458.4)" stroke="none" fill="black" font-family="Helvetica" font-size="14.00"  text-anchor="middle">
		<text><tspan font-family="Helvetica" > 1</tspan></text>
	</g>
</g>
<g fill="none" color="black" stroke="currentColor" stroke-width="1.00" stroke-linecap="butt" stroke-linejoin="miter">
	<path stroke='black'  d='M165.1,432.8 M165.1,63.1  '/>	<g transform="translate(165.1,458.4)" stroke="none" fill="black" font-family="Helvetica" font-size="14.00"  text-anchor="middle">
		<text><tspan font-family="Helvetica" > 10</tspan></text>
	</g>
</g>
<g fill="none" color="black" stroke="currentColor" stroke-width="1.00" stroke-linecap="butt" stroke-linejoin="miter">
	<path stroke='black'  d='M246.3,432.8 M246.3,63.1  '/>	<g transform="translate(246.3,458.4)" stroke="none" fill="black" font-family="Helvetica" font-size="14.00"  text-anchor="middle">
		<text><tspan font-family="Helvetica" > 100</tspan></text>
	</g>
</g>
<g fill="none" color="black" stroke="currentColor" stroke-width="1.00" stroke-linecap="butt" stroke-linejoin="miter">
	<path stroke='black'  d='M327.4,432.8 M327.4,63.1  '/>	<g transform="translate(327.4,458.4)" stroke="none" fill="black" font-family="Helvetica" font-size="14.00"  text-anchor="middle">
		<text><tspan font-family="Helvetica" > 1000</tspan></text>
	</g>
</g>
<g fill="none" color="black" stroke="currentColor" stroke-width="1.00" stroke-linecap="butt" stroke-linejoin="miter">
	<path stroke='black'  d='M408.5,432.8 M408.5,63.1  '/>	<g transform="translate(408.5,458.4)" stroke="none" fill="black" font-family="Helvetica" font-size="14.00"  text-anchor="middle">
		<text><tspan font-family="Helvetica" > 10000</tspan></text>
	</g>
</g>
<g fill="none" color="black" stroke="currentColor" stroke-width="1.00" stroke-linecap="butt" stroke-linejoin="miter">
	<path stroke='black'  d='M489.7,432.8 M489.7,63.1  '/>	<g transform="translate(489.7,458.4)" stroke="none" fill="black" font-family="Helvetica" font-size="14.00"  text-anchor="middle">
		<text><tspan font-family="Helvetica" > 100000</tspan></text>
	</g>
</g>
<g fill="none" color="black" stroke="currentColor" stroke-width="1.00" stroke-linecap="butt" stroke-linejoin="miter">
	<path stroke='black'  d='M570.8,432.8 M570.8,63.1  '/>	<g transform="translate(570.8,458.4)" stroke="none" fill="black" font-family="Helvetica" font-size="14.00"  text-anchor="middle">
		<text><tspan font-family="Helvetica" > 1×10</tspan><tspan font-family="Helvetica"  font-size="11.2" dy="-7.00px">6</tspan><tspan font-size="14.0" dy="7.00"></tspan></text>
	</g>
</g>
<g fill="none" color="black" stroke="currentColor" stroke-width="1.00" stroke-linecap="butt" stroke-linejoin="miter">
</g>
<g fill="none" color="black" stroke="currentColor" stroke-width="1.00" stroke-linecap="butt" stroke-linejoin="miter">
	<g transform="translate(22.2,248.0) rotate(270)" stroke="none" fill="black" font-family="Helvetica" font-size="14.00"  text-anchor="middle">
		<text><tspan font-family="Helvetica" >Time relative to naive tail-recursive version (%)</tspan></text>
	</g>
</g>
<g fill="none" color="black" stroke="currentColor" stroke-width="1.00" stroke-linecap="butt" stroke-linejoin="miter">
	<g transform="translate(327.4,489.9)" stroke="none" fill="black" font-family="Helvetica" font-size="14.00"  text-anchor="middle">
		<text><tspan font-family="Helvetica" >List size (no. of elements)</tspan></text>
	</g>
</g>
<g fill="none" color="black" stroke="currentColor" stroke-width="1.00" stroke-linecap="butt" stroke-linejoin="miter">
	<g transform="translate(327.4,36.2)" stroke="none" fill="black" font-family="Helvetica" font-size="14.00"  text-anchor="middle">
		<text><tspan font-family="Helvetica" >Time elapsed (relative) – lower is better</tspan></text>
	</g>
</g>
<g fill="none" color="black" stroke="currentColor" stroke-width="1.00" stroke-linecap="butt" stroke-linejoin="miter">
</g>
	<g id="gnuplot_plot_1" ><title>naive tail-rec.</title>
<g fill="none" color="white" stroke="currentColor" stroke-width="3.00" stroke-linecap="butt" stroke-linejoin="miter">
</g>
<g fill="none" color="black" stroke="currentColor" stroke-width="3.00" stroke-linecap="butt" stroke-linejoin="miter">
	<g transform="translate(267.1,358.4)" stroke="none" fill="black" font-family="Helvetica" font-size="13.00"  text-anchor="end">
		<text><tspan font-family="Helvetica" >naive tail-rec.</tspan></text>
	</g>
</g>
<g fill="none" color="black" stroke="currentColor" stroke-width="3.00" stroke-linecap="butt" stroke-linejoin="miter">
	<path stroke='gray'  d='M276.2,354.1 L323.1,354.1 M84.0,96.7 L122.7,96.7 L140.7,96.7 L165.1,96.7 L183.8,96.7 L205.0,96.7
		L225.8,96.7 L246.3,96.7 L266.4,96.7 L286.8,96.7 L307.1,96.7 L327.4,96.7 L347.7,96.7 L368.0,96.7
		L388.2,96.7 L408.5,96.7 L428.8,96.7 L449.1,96.7 L469.4,96.7 L489.7,96.7 L509.9,96.7 L530.2,96.7
		L550.5,96.7 L570.8,96.7  '/></g>
	</g>
	<g id="gnuplot_plot_2" ><title>base</title>
<g fill="none" color="black" stroke="currentColor" stroke-width="3.00" stroke-linecap="butt" stroke-linejoin="miter">
	<g transform="translate(267.1,377.9)" stroke="none" fill="black" font-family="Helvetica" font-size="13.00"  text-anchor="end">
		<text><tspan font-family="Helvetica" >base</tspan></text>
	</g>
</g>
<g fill="none" color="black" stroke="currentColor" stroke-width="3.00" stroke-linecap="butt" stroke-linejoin="miter">
	<path stroke='rgb(148,   0, 211)'  d='M276.2,373.6 L323.1,373.6 M84.0,199.8 L84.0,199.9 L122.7,252.9 L140.7,236.7 L165.1,242.8 L183.8,243.5
		L205.0,225.8 L225.8,209.3 L246.3,210.3 L266.4,213.4 L286.8,213.5 L307.1,219.2 L327.4,226.7 L347.7,233.0
		L368.0,243.1 L388.2,244.7 L408.5,197.2 L428.8,159.0 L449.1,134.7 L469.4,116.2 L489.7,101.2 L509.9,100.7
		L530.2,103.2 L550.5,95.8 L570.8,95.5  '/></g>
	</g>
	<g id="gnuplot_plot_3" ><title>batteries</title>
<g fill="none" color="black" stroke="currentColor" stroke-width="3.00" stroke-linecap="butt" stroke-linejoin="miter">
	<g transform="translate(267.1,397.4)" stroke="none" fill="black" font-family="Helvetica" font-size="13.00"  text-anchor="end">
		<text><tspan font-family="Helvetica" >batteries</tspan></text>
	</g>
</g>
<g fill="none" color="black" stroke="currentColor" stroke-width="3.00" stroke-linecap="butt" stroke-linejoin="miter">
	<path stroke='rgb(  0, 158, 115)'  d='M276.2,393.1 L323.1,393.1 M84.0,127.0 L84.0,125.1 L122.7,150.8 L140.7,143.8 L165.1,154.5 L183.8,170.6
		L205.0,162.7 L225.8,169.8 L246.3,176.5 L266.4,182.0 L286.8,183.8 L307.1,188.3 L327.4,192.9 L347.7,201.0
		L368.0,210.8 L388.2,225.0 L408.5,230.2 L428.8,235.3 L449.1,238.0 L469.4,231.2 L489.7,241.7 L509.9,249.3
		L530.2,257.0 L550.5,257.8 L570.8,267.6  '/></g>
	</g>
	<g id="gnuplot_plot_4" ><title>containers</title>
<g fill="none" color="black" stroke="currentColor" stroke-width="3.00" stroke-linecap="butt" stroke-linejoin="miter">
	<g transform="translate(267.1,416.9)" stroke="none" fill="black" font-family="Helvetica" font-size="13.00"  text-anchor="end">
		<text><tspan font-family="Helvetica" >containers</tspan></text>
	</g>
</g>
<g fill="none" color="black" stroke="currentColor" stroke-width="3.00" stroke-linecap="butt" stroke-linejoin="miter">
	<path stroke='rgb( 86, 180, 233)'  d='M276.2,412.6 L323.1,412.6 M84.0,207.8 L84.0,207.6 L122.7,255.2 L140.7,243.3 L165.1,248.0 L183.8,240.1
		L205.0,223.0 L225.8,202.6 L246.3,204.1 L266.4,204.9 L286.8,208.0 L307.1,210.6 L327.4,219.3 L347.7,227.5
		L368.0,236.8 L388.2,243.1 L408.5,234.8 L428.8,225.2 L449.1,217.8 L469.4,188.0 L489.7,193.3 L509.9,196.1
		L530.2,196.2 L550.5,199.2 L570.8,186.0  '/></g>
	</g>
	<g id="gnuplot_plot_5" ><title>trmc</title>
<g fill="none" color="black" stroke="currentColor" stroke-width="3.00" stroke-linecap="butt" stroke-linejoin="miter">
	<g transform="translate(496.0,358.4)" stroke="none" fill="black" font-family="Helvetica" font-size="13.00"  text-anchor="end">
		<text><tspan font-family="Helvetica" >trmc</tspan></text>
	</g>
</g>
<g fill="none" color="black" stroke="currentColor" stroke-width="3.00" stroke-linecap="butt" stroke-linejoin="miter">
	<path stroke='rgb(230, 159,   0)'  d='M505.1,354.1 L552.0,354.1 M84.0,184.7 L84.0,183.0 L122.7,189.5 L140.7,172.3 L165.1,162.5 L183.8,167.8
		L205.0,152.4 L225.8,156.6 L246.3,160.5 L266.4,165.6 L286.8,167.2 L307.1,176.3 L327.4,181.0 L347.7,193.3
		L368.0,201.4 L388.2,217.5 L408.5,226.5 L428.8,233.7 L449.1,236.9 L469.4,229.6 L489.7,243.6 L509.9,248.2
		L530.2,257.3 L550.5,258.4 L570.8,267.0  '/></g>
	</g>
	<g id="gnuplot_plot_6" ><title>trmc unrolled 4x</title>
<g fill="none" color="black" stroke="currentColor" stroke-width="3.00" stroke-linecap="butt" stroke-linejoin="miter">
	<g transform="translate(496.0,377.9)" stroke="none" fill="black" font-family="Helvetica" font-size="13.00"  text-anchor="end">
		<text><tspan font-family="Helvetica" >trmc unrolled 4x</tspan></text>
	</g>
</g>
<g fill="none" color="black" stroke="currentColor" stroke-width="3.00" stroke-linecap="butt" stroke-linejoin="miter">
	<path stroke='rgb(240, 228,  66)'  d='M505.1,373.6 L552.0,373.6 M84.0,215.3 L84.0,214.4 L122.7,253.0 L140.7,250.1 L165.1,250.2 L183.8,240.8
		L205.0,240.0 L225.8,236.3 L246.3,240.1 L266.4,242.0 L286.8,241.1 L307.1,243.8 L327.4,241.8 L347.7,241.1
		L368.0,240.1 L388.2,245.0 L408.5,245.3 L428.8,242.7 L449.1,242.8 L469.4,234.0 L489.7,247.9 L509.9,251.5
		L530.2,260.0 L550.5,262.1 L570.8,263.5  '/></g>
	</g>
	<g id="gnuplot_plot_7" ><title>stdlib</title>
<g fill="none" color="black" stroke="currentColor" stroke-width="3.00" stroke-linecap="butt" stroke-linejoin="miter">
	<g transform="translate(496.0,397.4)" stroke="none" fill="black" font-family="Helvetica" font-size="13.00"  text-anchor="end">
		<text><tspan font-family="Helvetica" >stdlib</tspan></text>
	</g>
</g>
<g fill="none" color="black" stroke="currentColor" stroke-width="3.00" stroke-linecap="butt" stroke-linejoin="miter">
	<path stroke='rgb(  0, 114, 178)'  d='M505.1,393.1 L552.0,393.1 M84.0,184.5 L84.0,184.3 L122.7,216.4 L140.7,211.5 L165.1,207.8 L183.8,173.0
		L205.0,164.5 L225.8,155.9 L246.3,153.3 L266.4,156.3 L286.8,163.9 L307.1,171.2 L327.4,182.7 L347.7,197.1
		L368.0,214.5 L388.2,232.9 L408.5,244.7 L428.8,253.1 L449.1,255.8 L469.4,215.0 L489.7,207.1 L509.9,200.2
		L530.2,175.9 L550.5,153.9 L570.8,65.6  '/></g>
	</g>
	<g id="gnuplot_plot_8" ><title>stdlib unrolled 5×</title>
<g fill="none" color="black" stroke="currentColor" stroke-width="3.00" stroke-linecap="butt" stroke-linejoin="miter">
	<g transform="translate(496.0,416.9)" stroke="none" fill="black" font-family="Helvetica" font-size="13.00"  text-anchor="end">
		<text><tspan font-family="Helvetica" >stdlib unrolled 5×</tspan></text>
	</g>
</g>
<g fill="none" color="black" stroke="currentColor" stroke-width="3.00" stroke-linecap="butt" stroke-linejoin="miter">
	<path stroke='rgb(229,  30,  16)'  d='M505.1,412.6 L552.0,412.6 M84.0,207.2 L84.0,206.4 L122.7,254.1 L140.7,244.9 L165.1,247.8 L183.8,246.2
		L205.0,227.2 L225.8,202.7 L246.3,207.8 L266.4,209.1 L286.8,211.3 L307.1,218.7 L327.4,226.1 L347.7,232.4
		L368.0,242.9 L388.2,257.9 L408.5,265.5 L428.8,270.8 L449.1,272.5 L469.4,237.2 L489.7,235.7 L509.9,239.4
		L530.2,239.9 L550.5,234.5 L570.8,214.3  '/></g>
	</g>
<g fill="none" color="white" stroke="rgb(229,  30,  16)" stroke-width="2.00" stroke-linecap="butt" stroke-linejoin="miter">
</g>
<g fill="none" color="black" stroke="currentColor" stroke-width="2.00" stroke-linecap="butt" stroke-linejoin="miter">
</g>
<g fill="none" color="black" stroke="black" stroke-width="1.00" stroke-linecap="butt" stroke-linejoin="miter">
</g>
<g fill="none" color="black" stroke="currentColor" stroke-width="1.00" stroke-linecap="butt" stroke-linejoin="miter">
</g>
</g>
</svg>

