<?xml version="1.0" encoding="utf-8"  standalone="no"?>
<svg 
 width="600" height="500"
 viewBox="0 0 600 500"
 xmlns="http://www.w3.org/2000/svg"
 xmlns:xlink="http://www.w3.org/1999/xlink"
>

<title>Gnuplot</title>
<desc>Produced by GNUPLOT 5.2 patchlevel 8 </desc>

<g id="gnuplot_canvas">

<rect x="0" y="0" width="600" height="500" fill="none"/>
<defs>

	<circle id='gpDot' r='0.5' stroke-width='0.5' stroke='currentColor'/>
	<path id='gpPt0' stroke-width='0.190' stroke='currentColor' d='M-1,0 h2 M0,-1 v2'/>
	<path id='gpPt1' stroke-width='0.190' stroke='currentColor' d='M-1,-1 L1,1 M1,-1 L-1,1'/>
	<path id='gpPt2' stroke-width='0.190' stroke='currentColor' d='M-1,0 L1,0 M0,-1 L0,1 M-1,-1 L1,1 M-1,1 L1,-1'/>
	<rect id='gpPt3' stroke-width='0.190' stroke='currentColor' x='-1' y='-1' width='2' height='2'/>
	<rect id='gpPt4' stroke-width='0.190' stroke='currentColor' fill='currentColor' x='-1' y='-1' width='2' height='2'/>
	<circle id='gpPt5' stroke-width='0.190' stroke='currentColor' cx='0' cy='0' r='1'/>
	<use xlink:href='#gpPt5' id='gpPt6' fill='currentColor' stroke='none'/>
	<path id='gpPt7' stroke-width='0.190' stroke='currentColor' d='M0,-1.33 L-1.33,0.67 L1.33,0.67 z'/>
	<use xlink:href='#gpPt7' id='gpPt8' fill='currentColor' stroke='none'/>
	<use xlink:href='#gpPt7' id='gpPt9' stroke='currentColor' transform='rotate(180)'/>
	<use xlink:href='#gpPt9' id='gpPt10' fill='currentColor' stroke='none'/>
	<use xlink:href='#gpPt3' id='gpPt11' stroke='currentColor' transform='rotate(45)'/>
	<use xlink:href='#gpPt11' id='gpPt12' fill='currentColor' stroke='none'/>
	<path id='gpPt13' stroke-width='0.190' stroke='currentColor' d='M0,1.330 L1.265,0.411 L0.782,-1.067 L-0.782,-1.076 L-1.265,0.411 z'/>
	<use xlink:href='#gpPt13' id='gpPt14' fill='currentColor' stroke='none'/>
	<filter id='textbox' filterUnits='objectBoundingBox' x='0' y='0' height='1' width='1'>
	  <feFlood flood-color='white' flood-opacity='1' result='bgnd'/>
	  <feComposite in='SourceGraphic' in2='bgnd' operator='atop'/>
	</filter>
	<filter id='greybox' filterUnits='objectBoundingBox' x='0' y='0' height='1' width='1'>
	  <feFlood flood-color='lightgrey' flood-opacity='1' result='grey'/>
	  <feComposite in='SourceGraphic' in2='grey' operator='atop'/>
	</filter>
</defs>
<g fill="none" color="white" stroke="currentColor" stroke-width="1.00" stroke-linecap="butt" stroke-linejoin="miter">
</g>
<g fill="none" color="black" stroke="currentColor" stroke-width="1.00" stroke-linecap="butt" stroke-linejoin="miter">
	<path stroke='black'  d='M84.0,432.8 M570.8,432.8  '/>	<g transform="translate(74.3,437.4)" stroke="none" fill="black" font-family="Helvetica" font-size="14.00"  text-anchor="end">
		<text><tspan font-family="Helvetica" > 0</tspan></text>
	</g>
</g>
<g fill="none" color="black" stroke="currentColor" stroke-width="1.00" stroke-linecap="butt" stroke-linejoin="miter">
	<path stroke='black'  d='M84.0,365.6 M570.8,365.6  '/>	<g transform="translate(74.3,370.2)" stroke="none" fill="black" font-family="Helvetica" font-size="14.00"  text-anchor="end">
		<text><tspan font-family="Helvetica" > 20</tspan></text>
	</g>
</g>
<g fill="none" color="black" stroke="currentColor" stroke-width="1.00" stroke-linecap="butt" stroke-linejoin="miter">
	<path stroke='black'  d='M84.0,298.4 M570.8,298.4  '/>	<g transform="translate(74.3,303.0)" stroke="none" fill="black" font-family="Helvetica" font-size="14.00"  text-anchor="end">
		<text><tspan font-family="Helvetica" > 40</tspan></text>
	</g>
</g>
<g fill="none" color="black" stroke="currentColor" stroke-width="1.00" stroke-linecap="butt" stroke-linejoin="miter">
	<path stroke='black'  d='M84.0,231.1 M570.8,231.1  '/>	<g transform="translate(74.3,235.7)" stroke="none" fill="black" font-family="Helvetica" font-size="14.00"  text-anchor="end">
		<text><tspan font-family="Helvetica" > 60</tspan></text>
	</g>
</g>
<g fill="none" color="black" stroke="currentColor" stroke-width="1.00" stroke-linecap="butt" stroke-linejoin="miter">
	<path stroke='black'  d='M84.0,163.9 M570.8,163.9  '/>	<g transform="translate(74.3,168.5)" stroke="none" fill="black" font-family="Helvetica" font-size="14.00"  text-anchor="end">
		<text><tspan font-family="Helvetica" > 80</tspan></text>
	</g>
</g>
<g fill="none" color="black" stroke="currentColor" stroke-width="1.00" stroke-linecap="butt" stroke-linejoin="miter">
	<path stroke='black'  d='M84.0,96.7 M570.8,96.7  '/>	<g transform="translate(74.3,101.3)" stroke="none" fill="black" font-family="Helvetica" font-size="14.00"  text-anchor="end">
		<text><tspan font-family="Helvetica" > 100</tspan></text>
	</g>
</g>
<g fill="none" color="black" stroke="currentColor" stroke-width="1.00" stroke-linecap="butt" stroke-linejoin="miter">
	<path stroke='black'  d='M84.0,432.8 M84.0,63.1  '/>	<g transform="translate(84.0,458.4)" stroke="none" fill="black" font-family="Helvetica" font-size="14.00"  text-anchor="middle">
		<text><tspan font-family="Helvetica" > 1</tspan></text>
	</g>
</g>
<g fill="none" color="black" stroke="currentColor" stroke-width="1.00" stroke-linecap="butt" stroke-linejoin="miter">
	<path stroke='black'  d='M165.1,432.8 M165.1,63.1  '/>	<g transform="translate(165.1,458.4)" stroke="none" fill="black" font-family="Helvetica" font-size="14.00"  text-anchor="middle">
		<text><tspan font-family="Helvetica" > 10</tspan></text>
	</g>
</g>
<g fill="none" color="black" stroke="currentColor" stroke-width="1.00" stroke-linecap="butt" stroke-linejoin="miter">
	<path stroke='black'  d='M246.3,432.8 M246.3,63.1  '/>	<g transform="translate(246.3,458.4)" stroke="none" fill="black" font-family="Helvetica" font-size="14.00"  text-anchor="middle">
		<text><tspan font-family="Helvetica" > 100</tspan></text>
	</g>
</g>
<g fill="none" color="black" stroke="currentColor" stroke-width="1.00" stroke-linecap="butt" stroke-linejoin="miter">
	<path stroke='black'  d='M327.4,432.8 M327.4,63.1  '/>	<g transform="translate(327.4,458.4)" stroke="none" fill="black" font-family="Helvetica" font-size="14.00"  text-anchor="middle">
		<text><tspan font-family="Helvetica" > 1000</tspan></text>
	</g>
</g>
<g fill="none" color="black" stroke="currentColor" stroke-width="1.00" stroke-linecap="butt" stroke-linejoin="miter">
	<path stroke='black'  d='M408.5,432.8 M408.5,63.1  '/>	<g transform="translate(408.5,458.4)" stroke="none" fill="black" font-family="Helvetica" font-size="14.00"  text-anchor="middle">
		<text><tspan font-family="Helvetica" > 10000</tspan></text>
	</g>
</g>
<g fill="none" color="black" stroke="currentColor" stroke-width="1.00" stroke-linecap="butt" stroke-linejoin="miter">
	<path stroke='black'  d='M489.7,432.8 M489.7,63.1  '/>	<g transform="translate(489.7,458.4)" stroke="none" fill="black" font-family="Helvetica" font-size="14.00"  text-anchor="middle">
		<text><tspan font-family="Helvetica" > 100000</tspan></text>
	</g>
</g>
<g fill="none" color="black" stroke="currentColor" stroke-width="1.00" stroke-linecap="butt" stroke-linejoin="miter">
	<path stroke='black'  d='M570.8,432.8 M570.8,63.1  '/>	<g transform="translate(570.8,458.4)" stroke="none" fill="black" font-family="Helvetica" font-size="14.00"  text-anchor="middle">
		<text><tspan font-family="Helvetica" > 1×10</tspan><tspan font-family="Helvetica"  font-size="11.2" dy="-7.00px">6</tspan><tspan font-size="14.0" dy="7.00"></tspan></text>
	</g>
</g>
<g fill="none" color="black" stroke="currentColor" stroke-width="1.00" stroke-linecap="butt" stroke-linejoin="miter">
</g>
<g fill="none" color="black" stroke="currentColor" stroke-width="1.00" stroke-linecap="butt" stroke-linejoin="miter">
	<g transform="translate(22.2,248.0) rotate(270)" stroke="none" fill="black" font-family="Helvetica" font-size="14.00"  text-anchor="middle">
		<text><tspan font-family="Helvetica" >Time relative to naive tail-recursive version (%)</tspan></text>
	</g>
</g>
<g fill="none" color="black" stroke="currentColor" stroke-width="1.00" stroke-linecap="butt" stroke-linejoin="miter">
	<g transform="translate(327.4,489.9)" stroke="none" fill="black" font-family="Helvetica" font-size="14.00"  text-anchor="middle">
		<text><tspan font-family="Helvetica" >List size (no. of elements)</tspan></text>
	</g>
</g>
<g fill="none" color="black" stroke="currentColor" stroke-width="1.00" stroke-linecap="butt" stroke-linejoin="miter">
	<g transform="translate(327.4,36.2)" stroke="none" fill="black" font-family="Helvetica" font-size="14.00"  text-anchor="middle">
		<text><tspan font-family="Helvetica" >Time elapsed (relative) – lower is better</tspan></text>
	</g>
</g>
<g fill="none" color="black" stroke="currentColor" stroke-width="1.00" stroke-linecap="butt" stroke-linejoin="miter">
</g>
	<g id="gnuplot_plot_1" ><title>naive tail-rec.</title>
<g fill="none" color="white" stroke="currentColor" stroke-width="3.00" stroke-linecap="butt" stroke-linejoin="miter">
</g>
<g fill="none" color="black" stroke="currentColor" stroke-width="3.00" stroke-linecap="butt" stroke-linejoin="miter">
	<g transform="translate(267.1,358.4)" stroke="none" fill="black" font-family="Helvetica" font-size="13.00"  text-anchor="end">
		<text><tspan font-family="Helvetica" >naive tail-rec.</tspan></text>
	</g>
</g>
<g fill="none" color="black" stroke="currentColor" stroke-width="3.00" stroke-linecap="butt" stroke-linejoin="miter">
	<path stroke='gray'  d='M276.2,354.1 L323.1,354.1 M84.0,96.7 L122.7,96.7 L140.7,96.7 L165.1,96.7 L183.8,96.7 L205.0,96.7
		L225.8,96.7 L246.3,96.7 L266.4,96.7 L286.8,96.7 L307.1,96.7 L327.4,96.7 L347.7,96.7 L368.0,96.7
		L388.2,96.7 L408.5,96.7 L428.8,96.7 L449.1,96.7 L469.4,96.7 L489.7,96.7 L509.9,96.7 L530.2,96.7
		L550.5,96.7 L570.8,96.7  '/></g>
	</g>
	<g id="gnuplot_plot_2" ><title>base</title>
<g fill="none" color="black" stroke="currentColor" stroke-width="3.00" stroke-linecap="butt" stroke-linejoin="miter">
	<g transform="translate(267.1,377.9)" stroke="none" fill="black" font-family="Helvetica" font-size="13.00"  text-anchor="end">
		<text><tspan font-family="Helvetica" >base</tspan></text>
	</g>
</g>
<g fill="none" color="black" stroke="currentColor" stroke-width="3.00" stroke-linecap="butt" stroke-linejoin="miter">
	<path stroke='rgb(148,   0, 211)'  d='M276.2,373.6 L323.1,373.6 M84.0,225.5 L84.0,235.2 L122.7,274.3 L140.7,240.3 L165.1,242.5 L183.8,239.3
		L205.0,231.9 L225.8,216.7 L246.3,209.9 L266.4,210.8 L286.8,206.1 L307.1,212.3 L327.4,208.7 L347.7,228.9
		L368.0,237.3 L388.2,239.5 L408.5,211.6 L428.8,177.2 L449.1,169.2 L469.4,120.2 L489.7,85.2 L509.9,105.3
		L530.2,106.1 L550.5,82.2 L570.8,98.2  '/></g>
	</g>
	<g id="gnuplot_plot_3" ><title>batteries</title>
<g fill="none" color="black" stroke="currentColor" stroke-width="3.00" stroke-linecap="butt" stroke-linejoin="miter">
	<g transform="translate(267.1,397.4)" stroke="none" fill="black" font-family="Helvetica" font-size="13.00"  text-anchor="end">
		<text><tspan font-family="Helvetica" >batteries</tspan></text>
	</g>
</g>
<g fill="none" color="black" stroke="currentColor" stroke-width="3.00" stroke-linecap="butt" stroke-linejoin="miter">
	<path stroke='rgb(  0, 158, 115)'  d='M276.2,393.1 L323.1,393.1 M84.0,118.3 L84.0,145.1 L122.7,155.0 L140.7,150.6 L165.1,150.9 L183.8,150.9
		L205.0,158.7 L225.8,176.7 L246.3,170.9 L266.4,185.4 L286.8,179.9 L307.1,182.8 L327.4,180.1 L347.7,184.7
		L368.0,195.8 L388.2,194.6 L408.5,198.2 L428.8,200.0 L449.1,210.6 L469.4,200.9 L489.7,191.7 L509.9,226.1
		L530.2,248.6 L550.5,246.2 L570.8,258.4  '/></g>
	</g>
	<g id="gnuplot_plot_4" ><title>containers</title>
<g fill="none" color="black" stroke="currentColor" stroke-width="3.00" stroke-linecap="butt" stroke-linejoin="miter">
	<g transform="translate(267.1,416.9)" stroke="none" fill="black" font-family="Helvetica" font-size="13.00"  text-anchor="end">
		<text><tspan font-family="Helvetica" >containers</tspan></text>
	</g>
</g>
<g fill="none" color="black" stroke="currentColor" stroke-width="3.00" stroke-linecap="butt" stroke-linejoin="miter">
	<path stroke='rgb( 86, 180, 233)'  d='M276.2,412.6 L323.1,412.6 M84.0,222.6 L84.0,237.4 L122.7,273.4 L140.7,244.8 L165.1,252.6 L183.8,235.7
		L205.0,217.0 L225.8,211.9 L246.3,208.8 L266.4,212.9 L286.8,204.9 L307.1,204.8 L327.4,201.2 L347.7,219.1
		L368.0,230.7 L388.2,241.6 L408.5,249.6 L428.8,251.2 L449.1,248.4 L469.4,235.3 L489.7,212.9 L509.9,202.6
		L530.2,206.6 L550.5,196.2 L570.8,212.2  '/></g>
	</g>
	<g id="gnuplot_plot_5" ><title>trmc</title>
<g fill="none" color="black" stroke="currentColor" stroke-width="3.00" stroke-linecap="butt" stroke-linejoin="miter">
	<g transform="translate(496.0,358.4)" stroke="none" fill="black" font-family="Helvetica" font-size="13.00"  text-anchor="end">
		<text><tspan font-family="Helvetica" >trmc</tspan></text>
	</g>
</g>
<g fill="none" color="black" stroke="currentColor" stroke-width="3.00" stroke-linecap="butt" stroke-linejoin="miter">
	<path stroke='rgb(230, 159,   0)'  d='M505.1,354.1 L552.0,354.1 M84.0,190.9 L84.0,210.7 L122.7,197.9 L140.7,160.2 L165.1,151.1 L183.8,148.8
		L205.0,146.4 L225.8,154.2 L246.3,147.1 L266.4,165.3 L286.8,162.8 L307.1,160.2 L327.4,155.8 L347.7,167.5
		L368.0,179.1 L388.2,181.4 L408.5,190.5 L428.8,196.6 L449.1,202.7 L469.4,199.2 L489.7,192.1 L509.9,223.3
		L530.2,247.1 L550.5,248.3 L570.8,255.4  '/></g>
	</g>
	<g id="gnuplot_plot_6" ><title>trmc unrolled 4x</title>
<g fill="none" color="black" stroke="currentColor" stroke-width="3.00" stroke-linecap="butt" stroke-linejoin="miter">
	<g transform="translate(496.0,377.9)" stroke="none" fill="black" font-family="Helvetica" font-size="13.00"  text-anchor="end">
		<text><tspan font-family="Helvetica" >trmc unrolled 4x</tspan></text>
	</g>
</g>
<g fill="none" color="black" stroke="currentColor" stroke-width="3.00" stroke-linecap="butt" stroke-linejoin="miter">
	<path stroke='rgb(240, 228,  66)'  d='M505.1,373.6 L552.0,373.6 M84.0,224.0 L84.0,210.9 L122.7,268.3 L140.7,255.0 L165.1,250.3 L183.8,233.9
		L205.0,242.6 L225.8,229.6 L246.3,232.4 L266.4,234.1 L286.8,235.7 L307.1,240.6 L327.4,233.0 L347.7,234.7
		L368.0,231.3 L388.2,224.4 L408.5,222.8 L428.8,225.0 L449.1,219.7 L469.4,205.1 L489.7,196.7 L509.9,228.9
		L530.2,252.5 L550.5,251.9 L570.8,257.9  '/></g>
	</g>
	<g id="gnuplot_plot_7" ><title>stdlib</title>
<g fill="none" color="black" stroke="currentColor" stroke-width="3.00" stroke-linecap="butt" stroke-linejoin="miter">
	<g transform="translate(496.0,397.4)" stroke="none" fill="black" font-family="Helvetica" font-size="13.00"  text-anchor="end">
		<text><tspan font-family="Helvetica" >stdlib</tspan></text>
	</g>
</g>
<g fill="none" color="black" stroke="currentColor" stroke-width="3.00" stroke-linecap="butt" stroke-linejoin="miter">
	<path stroke='rgb(  0, 114, 178)'  d='M505.1,393.1 L552.0,393.1 M84.0,196.3 L84.0,187.9 L122.7,233.9 L140.7,213.5 L165.1,212.7 L183.8,167.7
		L205.0,168.2 L225.8,145.7 L246.3,143.2 L266.4,153.3 L286.8,159.4 L307.1,157.6 L327.4,154.8 L347.7,177.7
		L368.0,196.5 L388.2,208.1 L408.5,231.3 L428.8,251.3 L449.1,259.5 L469.4,252.2 L489.7,236.7 L509.9,218.1
		L530.2,192.5 L550.5,131.0 L570.8,92.0  '/></g>
	</g>
	<g id="gnuplot_plot_8" ><title>stdlib unrolled 5×</title>
<g fill="none" color="black" stroke="currentColor" stroke-width="3.00" stroke-linecap="butt" stroke-linejoin="miter">
	<g transform="translate(496.0,416.9)" stroke="none" fill="black" font-family="Helvetica" font-size="13.00"  text-anchor="end">
		<text><tspan font-family="Helvetica" >stdlib unrolled 5×</tspan></text>
	</g>
</g>
<g fill="none" color="black" stroke="currentColor" stroke-width="3.00" stroke-linecap="butt" stroke-linejoin="miter">
	<path stroke='rgb(229,  30,  16)'  d='M505.1,412.6 L552.0,412.6 M84.0,233.8 L84.0,247.7 L122.7,272.9 L140.7,246.4 L165.1,254.8 L183.8,232.6
		L205.0,234.7 L225.8,212.6 L246.3,207.9 L266.4,207.4 L286.8,211.8 L307.1,211.0 L327.4,208.4 L347.7,228.4
		L368.0,237.6 L388.2,250.8 L408.5,263.6 L428.8,278.4 L449.1,290.5 L469.4,291.6 L489.7,273.0 L509.9,266.4
		L530.2,250.6 L550.5,222.2 L570.8,208.8  '/></g>
	</g>
<g fill="none" color="white" stroke="rgb(229,  30,  16)" stroke-width="2.00" stroke-linecap="butt" stroke-linejoin="miter">
</g>
<g fill="none" color="black" stroke="currentColor" stroke-width="2.00" stroke-linecap="butt" stroke-linejoin="miter">
</g>
<g fill="none" color="black" stroke="black" stroke-width="1.00" stroke-linecap="butt" stroke-linejoin="miter">
</g>
<g fill="none" color="black" stroke="currentColor" stroke-width="1.00" stroke-linecap="butt" stroke-linejoin="miter">
</g>
</g>
</svg>

